{
	"main_script": "googlemaps.js",
	"icon": "googlemaps.webp",
	"width":  800,
	"height": 600,
	"resize": "free",
	"dependencies": [
		"googlemapsInit.js",
		"https://maps.googleapis.com/maps/api/js?v=3.exp&sensor=false&libraries=weather&callback=googleMapsForSAGE2Init"
	],
	"load": {
		"mapType":   "hybrid",
		"zoomLevel": 8,
		"center":    {"lat": 41.850033, "lng": -87.6500523},
		"layer":     {"w": false, "t": false}
	},
	"title": "Google Maps",
	"version": "1.1.0",
	"description": "Map visualization using Google Maps Javascript API V3",
	"keywords": [ "maps", "google", "geo" ],
	"author": "Luc Renambot <renambot@gmail.com>",
	"license": "SAGE2-Software-License"
}


